\relax 
\providecommand\hyper@newdestlabel[2]{}
\newlabel{cha:abstract}{{}{2}{Abstract}{section*.1}{}}
\@setckpt{chapters/abstract}{
\setcounter{page}{3}
\setcounter{equation}{0}
\setcounter{enumi}{0}
\setcounter{enumii}{0}
\setcounter{enumiii}{0}
\setcounter{enumiv}{0}
\setcounter{footnote}{0}
\setcounter{mpfootnote}{0}
\setcounter{part}{0}
\setcounter{section}{0}
\setcounter{subsection}{0}
\setcounter{subsubsection}{0}
\setcounter{paragraph}{0}
\setcounter{subparagraph}{0}
\setcounter{figure}{0}
\setcounter{table}{0}
\setcounter{AlgoLine}{0}
\setcounter{algocfline}{0}
\setcounter{algocfproc}{0}
\setcounter{algocf}{0}
\setcounter{LT@tables}{0}
\setcounter{LT@chunks}{0}
\setcounter{parentequation}{0}
\setcounter{su@anzahl}{0}
\setcounter{Item}{0}
\setcounter{bookmark@seq@number}{0}
\setcounter{lstnumber}{1}
\setcounter{section@level}{0}
\setcounter{lstlisting}{0}
}
